%YAML 1.1
%TAG !u! tag:unity3d.com,2011:
--- !u!1045 &1
EditorBuildSettings:
  m_ObjectHideFlags: 0
  serializedVersion: 2
  m_Scenes:
  - enabled: 0
    path: Assets/ListView/Examples/8. Dictionary/Dictionary.unity
  - enabled: 0
    path: Assets/ListView/Examples/0. Simple/Simple.unity
  - enabled: 0
    path: Assets/ListView/Examples/1. Basic/Basic.unity
  - enabled: 0
    path: Assets/ListView/Examples/10. Card Game/Card Game.unity
  - enabled: 0
    path: Assets/ListView/Examples/2. Custom Scrolling/Custom Scrolling.unity
  - enabled: 0
    path: Assets/ListView/Examples/3. Custom Item/Custom Item.unity
  - enabled: 0
    path: Assets/ListView/Examples/4. JSON Data/Custom Data.unity
  - enabled: 0
    path: Assets/ListView/Examples/5. Nested Data/Nested Data.unity
  - enabled: 0
    path: Assets/ListView/Examples/6. Web Data/Web Data.unity
  - enabled: 0
    path: Assets/ListView/Examples/7. Advanced List/Advanced List.unity
  - enabled: 0
    path: Assets/ListView/Examples/9. Cards/Cards.unity
  - enabled: 1
    path: Assets/ListView/Examples/Test/TestScene.unity
